%!PS-Adobe-3.0 EPSF-3.0
%%BoundingBox: -113.1370866757215 -56.56854333786077 513.1370866757215 456.5685433378608

%%Pages: 1
%%Page: 1 1
/show-ctr {
dup stringwidth pop
 -2 div 0
 rmoveto show
} def

 2 setlinejoin

0 0 0 setrgbcolor
-0.3 setlinewidth

0 0 moveto
7.573592496604419 -56.56854333786077 lineto
0 0 moveto
-56.56854333786077 7.573592496604419 lineto
0 0 moveto
-56.56854333786077 -56.56854333786077 lineto
0 400 moveto
50.24321650346167 355.738196550041 lineto
0 400 moveto
7.573592496604419 456.5685433378608 lineto
0 400 moveto
-56.56854333786077 392.4264075033956 lineto
0 400 moveto
-56.56854333786077 456.5685433378608 lineto
456.5685433378608 200 moveto
400 202.8504472361803 lineto
456.5685433378608 200 moveto
429.6164415042657 166.1094803518694 lineto
456.5685433378608 200 moveto
456.5685433378608 264.1421358344652 lineto
456.5685433378608 200 moveto
456.5685433378608 135.8578641655348 lineto
200 456.5685433378608 moveto
213.7938384948632 400 lineto
200 456.5685433378608 moveto
135.8578641655348 456.5685433378608 lineto
200 456.5685433378608 moveto
264.1421358344652 456.5685433378608 lineto
200 456.5685433378608 moveto
151.7721589058113 400 lineto
200 -56.56854333786077 moveto
216.0444502135842 0 lineto
200 -56.56854333786077 moveto
135.8578641655348 -56.56854333786077 lineto
200 -56.56854333786077 moveto
264.1421358344652 -56.56854333786077 lineto
200 -56.56854333786077 moveto
154.54099201901 0 lineto
-56.56854333786077 200 moveto
0 212.6483262856171 lineto
-56.56854333786077 200 moveto
-56.56854333786077 135.8578641655348 lineto
-56.56854333786077 200 moveto
-56.56854333786077 264.1421358344652 lineto
-56.56854333786077 200 moveto
0 161.4534838265585 lineto
82.94754899818328 310.9780862200156 moveto
61.14313897591564 299.7903407200411 lineto
82.94754899818328 310.9780862200156 moveto
39.85367052343999 322.6356306868266 lineto
82.94754899818328 310.9780862200156 moveto
88.51558903639558 337.3007434912884 lineto
82.94754899818328 310.9780862200156 moveto
85.81183582028807 303.0363511286969 lineto
82.94754899818328 310.9780862200156 moveto
88.04609918293755 304.7753943798701 lineto
82.94754899818328 310.9780862200156 moveto
91.28209656602985 306.6633120655717 lineto
82.94754899818328 310.9780862200156 moveto
96.69999999999999 316.8 lineto
82.94754899818328 310.9780862200156 moveto
80.99637962605603 301.9203386076632 lineto
357.7842785795619 40.10339868103001 moveto
341.3507965854917 0 lineto
357.7842785795619 40.10339868103001 moveto
333.7257835970709 80.35443916095251 lineto
357.7842785795619 40.10339868103001 moveto
312.177063709369 51.60798406194667 lineto
357.7842785795619 40.10339868103001 moveto
400 66.25187028441353 lineto
357.7842785795619 40.10339868103001 moveto
400 0 lineto
42.23515624999999 176.923046875 moveto
0 212.6483262856171 lineto
42.23515624999999 176.923046875 moveto
0 161.4534838265585 lineto
-56.56854333786077 328.2842716689304 moveto
0 345.1479290272209 lineto
-56.56854333786077 328.2842716689304 moveto
-56.56854333786077 392.4264075033956 lineto
-56.56854333786077 328.2842716689304 moveto
-56.56854333786077 264.1421358344652 lineto
-56.56854333786077 328.2842716689304 moveto
0 277.3019502903928 lineto
-56.56854333786077 71.71572833106961 moveto
0 43.36179782305196 lineto
-56.56854333786077 71.71572833106961 moveto
-56.56854333786077 7.573592496604419 lineto
-56.56854333786077 71.71572833106961 moveto
-56.56854333786077 135.8578641655348 lineto
-56.56854333786077 71.71572833106961 moveto
0 108.1343525536189 lineto
328.2842716689304 -56.56854333786077 moveto
341.3507965854917 0 lineto
328.2842716689304 -56.56854333786077 moveto
392.4264075033956 -56.56854333786077 lineto
328.2842716689304 -56.56854333786077 moveto
264.1421358344652 -56.56854333786077 lineto
328.2842716689304 -56.56854333786077 moveto
282.6609129300971 0 lineto
71.71572833106961 -56.56854333786077 moveto
7.573592496604419 -56.56854333786077 lineto
71.71572833106961 -56.56854333786077 moveto
135.8578641655348 -56.56854333786077 lineto
71.71572833106961 -56.56854333786077 moveto
44.72433824011588 0 lineto
71.71572833106961 -56.56854333786077 moveto
96.23569259013937 0 lineto
328.2842716689304 456.5685433378608 moveto
358.2985200449294 400 lineto
328.2842716689304 456.5685433378608 moveto
392.4264075033956 456.5685433378608 lineto
328.2842716689304 456.5685433378608 moveto
264.1421358344652 456.5685433378608 lineto
328.2842716689304 456.5685433378608 moveto
316.5970400898588 400.0000000000001 lineto
71.71572833106961 456.5685433378608 moveto
7.573592496604419 456.5685433378608 lineto
71.71572833106961 456.5685433378608 moveto
135.8578641655348 456.5685433378608 lineto
71.71572833106961 456.5685433378608 moveto
49.05297793485852 400 lineto
71.71572833106961 456.5685433378608 moveto
108.3001787259374 400 lineto
456.5685433378608 71.71572833106961 moveto
427.9222850185076 96.10720258768902 lineto
456.5685433378608 71.71572833106961 moveto
456.5685433378608 103.7867962483022 lineto
456.5685433378608 71.71572833106961 moveto
456.5685433378608 7.573592496604419 lineto
456.5685433378608 71.71572833106961 moveto
400 66.25187028441353 lineto
456.5685433378608 328.2842716689304 moveto
456.5685433378608 392.4264075033956 lineto
456.5685433378608 328.2842716689304 moveto
456.5685433378608 264.1421358344652 lineto
456.5685433378608 328.2842716689304 moveto
400 328.3636049438037 lineto
400 202.8504472361803 moveto
429.6164415042657 166.1094803518694 lineto
400 202.8504472361803 moveto
456.5685433378608 264.1421358344652 lineto
400 202.8504472361803 moveto
356.3250188580879 180.9377272730363 lineto
400 202.8504472361803 moveto
358.1529666561993 215.7488072718472 lineto
0 212.6483262856171 moveto
44.74868188222744 225.2251175539252 lineto
0 212.6483262856171 moveto
-56.56854333786077 264.1421358344652 lineto
213.7938384948632 400 moveto
264.1421358344652 456.5685433378608 lineto
213.7938384948632 400 moveto
200.7704141037099 360.4505129533659 lineto
213.7938384948632 400 moveto
251.0696465401712 352.278950498809 lineto
48.52273172077537 148.0076754749892 moveto
0 161.4534838265585 lineto
48.52273172077537 148.0076754749892 moveto
0 108.1343525536189 lineto
44.74868188222744 225.2251175539252 moveto
0 277.3019502903928 lineto
216.0444502135842 0 moveto
264.1421358344652 -56.56854333786077 lineto
216.0444502135842 0 moveto
175.28964279992 40.89862717863011 lineto
216.0444502135842 0 moveto
211.8446764615351 39.77344648314268 lineto
216.0444502135842 0 moveto
242.0633377737532 45.63881684178295 lineto
341.3507965854917 0 moveto
312.177063709369 51.60798406194667 lineto
341.3507965854917 0 moveto
392.4264075033956 -56.56854333786077 lineto
61.14313897591564 299.7903407200411 moveto
39.85367052343999 322.6356306868266 lineto
61.14313897591564 299.7903407200411 moveto
74.26955336981436 293.9264768432124 lineto
61.14313897591564 299.7903407200411 moveto
54.9031479855312 273.9005257428213 lineto
61.14313897591564 299.7903407200411 moveto
64.71309289565831 275.7052996341381 lineto
61.14313897591564 299.7903407200411 moveto
80.99637962605603 301.9203386076632 lineto
61.14313897591564 299.7903407200411 moveto
0 277.3019502903928 lineto
63.41558796700247 115.461879720403 moveto
53.75961588589659 55.91423475379513 lineto
63.41558796700247 115.461879720403 moveto
0 108.1343525536189 lineto
53.89999999999999 252.4 moveto
62.7998078704409 245.9753791067408 lineto
53.89999999999999 252.4 moveto
63.02704467140859 268.1985022621708 lineto
53.89999999999999 252.4 moveto
54.9031479855312 273.9005257428213 lineto
53.89999999999999 252.4 moveto
0 277.3019502903928 lineto
357.8793652971473 364.3820053971128 moveto
358.2985200449294 400 lineto
357.8793652971473 364.3820053971128 moveto
319.9594397506112 358.4586063298712 lineto
357.8793652971473 364.3820053971128 moveto
343.752082657819 328.2337745071928 lineto
357.8793652971473 364.3820053971128 moveto
400 400 lineto
357.8793652971473 364.3820053971128 moveto
316.5970400898588 400.0000000000001 lineto
357.8793652971473 364.3820053971128 moveto
400 328.3636049438037 lineto
59.02228151195533 234.3873385822754 moveto
62.7998078704409 245.9753791067408 lineto
59.02228151195533 234.3873385822754 moveto
69.65482369402925 229.4738264381194 lineto
354.9872401146137 107.6038822266087 moveto
324.3928513582248 99.11699688669137 lineto
354.9872401146137 107.6038822266087 moveto
333.7257835970709 80.35443916095251 lineto
354.9872401146137 107.6038822266087 moveto
343.7334180153534 127.6845598339357 lineto
354.9872401146137 107.6038822266087 moveto
364.9816533272408 137.5932175723227 lineto
354.9872401146137 107.6038822266087 moveto
335.1525956794316 117.677082604272 lineto
354.9872401146137 107.6038822266087 moveto
400 66.25187028441353 lineto
354.9872401146137 107.6038822266087 moveto
400 112.7618413889674 lineto
0 43.36179782305196 moveto
53.75961588589659 55.91423475379513 lineto
0 43.36179782305196 moveto
-56.56854333786077 7.573592496604419 lineto
0 43.36179782305196 moveto
44.72433824011588 0 lineto
0 345.1479290272209 moveto
50.24321650346167 355.738196550041 lineto
0 345.1479290272209 moveto
39.85367052343999 322.6356306868266 lineto
0 345.1479290272209 moveto
-56.56854333786077 392.4264075033956 lineto
50.24321650346167 355.738196550041 moveto
39.85367052343999 322.6356306868266 lineto
50.24321650346167 355.738196550041 moveto
88.51558903639558 337.3007434912884 lineto
50.24321650346167 355.738196550041 moveto
49.05297793485852 400 lineto
50.24321650346167 355.738196550041 moveto
108.3001787259374 400 lineto
39.85367052343999 322.6356306868266 moveto
88.51558903639558 337.3007434912884 lineto
39.85367052343999 322.6356306868266 moveto
0 277.3019502903928 lineto
63.02704467140859 268.1985022621708 moveto
54.9031479855312 273.9005257428213 lineto
318.3373735805393 98.57066165765177 moveto
324.3928513582248 99.11699688669137 lineto
318.3373735805393 98.57066165765177 moveto
316.7829662710329 92.70039109073997 lineto
318.3373735805393 98.57066165765177 moveto
315.3982784628566 97.81797302500405 lineto
318.3373735805393 98.57066165765177 moveto
317 99.49999999999994 lineto
318.3373735805393 98.57066165765177 moveto
317.370853805542 100.0365871429443 lineto
318.3373735805393 98.57066165765177 moveto
317.9 100.6999999999999 lineto
69.65482369402925 229.4738264381194 moveto
65.89835074874395 220.988031655709 lineto
65.89835074874395 220.988031655709 moveto
80.66546483667214 212.3937623932301 lineto
427.9222850185076 96.10720258768902 moveto
456.5685433378608 103.7867962483022 lineto
427.9222850185076 96.10720258768902 moveto
428.4519778488622 128.3774986440246 lineto
427.9222850185076 96.10720258768902 moveto
400 66.25187028441353 lineto
427.9222850185076 96.10720258768902 moveto
400 112.7618413889674 lineto
64.90000000000001 271.9 moveto
54.9031479855312 273.9005257428213 lineto
64.90000000000001 271.9 moveto
64.71309289565831 275.7052996341381 lineto
65.50902774389834 271.9819554100744 moveto
64.71309289565831 275.7052996341381 lineto
358.2985200449294 400 moveto
392.4264075033956 456.5685433378608 lineto
259.8918615160324 162.3824424343892 moveto
213.2475098516118 174.2789579803871 lineto
259.8918615160324 162.3824424343892 moveto
233.0623971611052 145.1259616582496 lineto
259.8918615160324 162.3824424343892 moveto
251.1973201168177 140.6708035874897 lineto
259.8918615160324 162.3824424343892 moveto
273.3680083249146 203.5843891793803 lineto
259.8918615160324 162.3824424343892 moveto
270.2845568378672 139.4738541528777 lineto
259.8918615160324 162.3824424343892 moveto
290.3 148.9 lineto
259.8918615160324 162.3824424343892 moveto
290.7492813094627 174.1947946631367 lineto
429.6164415042657 166.1094803518694 moveto
428.4519778488622 128.3774986440246 lineto
429.6164415042657 166.1094803518694 moveto
456.5685433378608 135.8578641655348 lineto
429.6164415042657 166.1094803518694 moveto
400 159.0463618165775 lineto
324.3928513582248 99.11699688669137 moveto
333.7257835970709 80.35443916095251 lineto
324.3928513582248 99.11699688669137 moveto
335.1525956794316 117.677082604272 lineto
324.3928513582248 99.11699688669137 moveto
319.8719547206637 106.4548374797033 lineto
324.3928513582248 99.11699688669137 moveto
316.7829662710329 92.70039109073997 lineto
324.3928513582248 99.11699688669137 moveto
317.9 100.6999999999999 lineto
88.51558903639558 337.3007434912884 moveto
96.69999999999999 316.8 lineto
88.51558903639558 337.3007434912884 moveto
105.9251726998786 325.5470106237476 lineto
88.51558903639558 337.3007434912884 moveto
119.1493231852651 335.6700017132503 lineto
88.51558903639558 337.3007434912884 moveto
108.3001787259374 400 lineto
308.1809700141962 103.7343221602279 moveto
314.0800962762044 112.213276375841 lineto
308.1809700141962 103.7343221602279 moveto
312.6501546195994 97.92222486514352 lineto
308.1809700141962 103.7343221602279 moveto
315.7402069666983 101.0514479455594 lineto
308.1809700141962 103.7343221602279 moveto
301.5391803298684 94.12258860524574 lineto
308.1809700141962 103.7343221602279 moveto
298.4003879566533 119.0458839143469 lineto
308.1809700141962 103.7343221602279 moveto
307.889881867091 118.4896200258757 lineto
308.1809700141962 103.7343221602279 moveto
308.5428879105788 94.99340411437301 lineto
312.6662881338767 81.10350264101935 moveto
333.7257835970709 80.35443916095251 lineto
312.6662881338767 81.10350264101935 moveto
316.7829662710329 92.70039109073997 lineto
312.6662881338767 81.10350264101935 moveto
312.177063709369 51.60798406194667 lineto
312.6662881338767 81.10350264101935 moveto
294.786939482596 74.90205754412786 lineto
312.6662881338767 81.10350264101935 moveto
303.9 83.7 lineto
312.6662881338767 81.10350264101935 moveto
305.6764224933486 92.13088221491691 lineto
312.6662881338767 81.10350264101935 moveto
310.7401601945013 94.42491284794872 lineto
333.7257835970709 80.35443916095251 moveto
316.7829662710329 92.70039109073997 lineto
333.7257835970709 80.35443916095251 moveto
312.177063709369 51.60798406194667 lineto
333.7257835970709 80.35443916095251 moveto
400 66.25187028441353 lineto
456.5685433378608 103.7867962483022 moveto
428.4519778488622 128.3774986440246 lineto
456.5685433378608 103.7867962483022 moveto
456.5685433378608 135.8578641655348 lineto
75.93625566744359 278.7337162418139 moveto
74.26955336981436 293.9264768432124 lineto
75.93625566744359 278.7337162418139 moveto
82.24327846627797 290.44887722907 lineto
75.93625566744359 278.7337162418139 moveto
64.71309289565831 275.7052996341381 lineto
335.5143245124465 126.1214508260371 moveto
343.7334180153534 127.6845598339357 lineto
335.5143245124465 126.1214508260371 moveto
335.1525956794316 117.677082604272 lineto
335.5143245124465 126.1214508260371 moveto
332.3292508843266 125.6111878666479 lineto
335.5143245124465 126.1214508260371 moveto
334.459375 126.590625 lineto
335.5143245124465 126.1214508260371 moveto
334.540625 126.809375 lineto
335.5143245124465 126.1214508260371 moveto
334.9 127.9 lineto
335.5143245124465 126.1214508260371 moveto
335.5360528771674 128.9685000520209 lineto
74.26955336981436 293.9264768432124 moveto
81.89999999999995 298.8 lineto
74.26955336981436 293.9264768432124 moveto
82.24327846627797 290.44887722907 lineto
74.26955336981436 293.9264768432124 moveto
64.71309289565831 275.7052996341381 lineto
74.26955336981436 293.9264768432124 moveto
80.99637962605603 301.9203386076632 lineto
343.7334180153534 127.6845598339357 moveto
364.9816533272408 137.5932175723227 lineto
343.7334180153534 127.6845598339357 moveto
335.1525956794316 117.677082604272 lineto
343.7334180153534 127.6845598339357 moveto
335.5360528771674 128.9685000520209 lineto
343.7334180153534 127.6845598339357 moveto
338.8251112588835 143.0333302083104 lineto
343.7334180153534 127.6845598339357 moveto
346 147.6 lineto
428.4519778488622 128.3774986440246 moveto
456.5685433378608 135.8578641655348 lineto
428.4519778488622 128.3774986440246 moveto
400 159.0463618165775 lineto
428.4519778488622 128.3774986440246 moveto
400 112.7618413889674 lineto
314.0800962762044 112.213276375841 moveto
319.8719547206637 106.4548374797033 lineto
314.0800962762044 112.213276375841 moveto
315.7402069666983 101.0514479455594 lineto
314.0800962762044 112.213276375841 moveto
307.889881867091 118.4896200258757 lineto
314.0800962762044 112.213276375841 moveto
324.2365232417187 120.9330709528712 lineto
76.98425446115617 204.7863814934551 moveto
80.66546483667214 212.3937623932301 lineto
76.98425446115617 204.7863814934551 moveto
89.78774806300777 200.9893755286549 lineto
312.6501546195994 97.92222486514352 moveto
315.7402069666983 101.0514479455594 lineto
312.6501546195994 97.92222486514352 moveto
308.5428879105788 94.99340411437301 lineto
312.6501546195994 97.92222486514352 moveto
312.0916046248749 95.93603554945435 lineto
312.6501546195994 97.92222486514352 moveto
312.7377902475503 95.6761013825419 lineto
312.6501546195994 97.92222486514352 moveto
315.3982784628566 97.81797302500405 lineto
82.64999999999998 299.65 moveto
82.91787681579585 300.093060684204 lineto
82.64999999999998 299.65 moveto
85.28193022503505 298.147792705805 lineto
82.64999999999998 299.65 moveto
82.51268211436152 299.610797997268 lineto
54.9031479855312 273.9005257428213 moveto
64.71309289565831 275.7052996341381 lineto
54.9031479855312 273.9005257428213 moveto
0 277.3019502903928 lineto
364.9816533272408 137.5932175723227 moveto
400 159.0463618165775 lineto
364.9816533272408 137.5932175723227 moveto
346 147.6 lineto
364.9816533272408 137.5932175723227 moveto
351.0078124504176 160.2341518781946 lineto
364.9816533272408 137.5932175723227 moveto
400 112.7618413889674 lineto
81.89999999999995 298.8 moveto
85.28193022503505 298.147792705805 lineto
81.89999999999995 298.8 moveto
82.24327846627797 290.44887722907 lineto
81.89999999999995 298.8 moveto
80.99637962605603 301.9203386076632 lineto
82.91787681579585 300.093060684204 moveto
80.99637962605603 301.9203386076632 lineto
335.1525956794316 117.677082604272 moveto
319.8719547206637 106.4548374797033 lineto
335.1525956794316 117.677082604272 moveto
324.2365232417187 120.9330709528712 lineto
335.1525956794316 117.677082604272 moveto
332.3292508843266 125.6111878666479 lineto
83.40000000000001 300.5 moveto
85.28193022503505 298.147792705805 lineto
83.40000000000001 300.5 moveto
80.99637962605603 301.9203386076632 lineto
85.81183582028807 303.0363511286969 moveto
80.99637962605603 301.9203386076632 lineto
85.28193022503505 298.147792705805 moveto
87.18916813796382 303.4267946420237 lineto
85.28193022503505 298.147792705805 moveto
91.47182678339468 304.5905059025436 lineto
85.28193022503505 298.147792705805 moveto
82.24327846627797 290.44887722907 lineto
85.28193022503505 298.147792705805 moveto
97.19923409475045 280.8194787753715 lineto
82.51268211436152 299.610797997268 moveto
80.99637962605603 301.9203386076632 lineto
91.28209656602985 306.6633120655717 moveto
96.69999999999999 316.8 lineto
319.8719547206637 106.4548374797033 moveto
315.7402069666983 101.0514479455594 lineto
319.8719547206637 106.4548374797033 moveto
317.9 100.6999999999999 lineto
319.8719547206637 106.4548374797033 moveto
324.2365232417187 120.9330709528712 lineto
315.7402069666983 101.0514479455594 moveto
315.3982784628566 97.81797302500405 lineto
315.7402069666983 101.0514479455594 moveto
317 99.49999999999994 lineto
315.7402069666983 101.0514479455594 moveto
317.370853805542 100.0365871429443 lineto
315.7402069666983 101.0514479455594 moveto
317.9 100.6999999999999 lineto
91.23112190834931 187.9951000123879 moveto
89.78774806300777 200.9893755286549 lineto
91.23112190834931 187.9951000123879 moveto
105.3900972210567 184.2659622451902 lineto
91.47182678339468 304.5905059025436 moveto
97.19923409475045 280.8194787753715 lineto
95.79138125239677 308.4918744987684 moveto
96.69999999999999 316.8 lineto
82.24327846627797 290.44887722907 moveto
97.19923409475045 280.8194787753715 lineto
99.69091456292389 309.5616312236489 moveto
96.69999999999999 316.8 lineto
99.69091456292389 309.5616312236489 moveto
106.4873910586079 318.4592517031987 lineto
97.19923409475045 280.8194787753715 moveto
101.385378838885 305.4974556033796 lineto
97.19923409475045 280.8194787753715 moveto
114.1425758021697 304.4192981913354 lineto
106.4873910586079 318.4592517031987 moveto
109.0427016003459 310.8470018235433 lineto
105.3900972210567 184.2659622451902 moveto
109.0004784687847 170.2821751074887 lineto
109.0004784687847 170.2821751074887 moveto
123.3605303702129 167.6080076918468 lineto
111.4327083496736 219.4821198251667 moveto
142.2435787748741 259.7567899352093 lineto
111.4327083496736 219.4821198251667 moveto
164.4405822155405 255.0607059777695 lineto
111.4327083496736 219.4821198251667 moveto
186.6526955208828 226.5751619083518 lineto
111.4327083496736 219.4821198251667 moveto
118.1357878658434 246.6739252493342 lineto
109.4 250.6 moveto
118.1357878658434 246.6739252493342 lineto
109.7 66.80000000000001 moveto
53.75961588589659 55.91423475379513 lineto
109.7 66.80000000000001 moveto
154.54099201901 0 lineto
109.7 66.80000000000001 moveto
96.23569259013937 0 lineto
109.0427016003459 310.8470018235433 moveto
113.3729765796296 318.7984605532332 lineto
113.3729765796296 318.7984605532332 moveto
119.4213062838973 310.8358612754994 lineto
137.1093874585359 183.4281633592803 moveto
186.6526955208828 226.5751619083518 lineto
316.7829662710329 92.70039109073997 moveto
310.7401601945013 94.42491284794872 lineto
316.7829662710329 92.70039109073997 moveto
312.7377902475503 95.6761013825419 lineto
316.7829662710329 92.70039109073997 moveto
315.3982784628566 97.81797302500405 lineto
118.0990335861652 277.424324496857 moveto
114.1425758021697 304.4192981913354 lineto
118.0990335861652 277.424324496857 moveto
126.1632201667414 301.9077087759881 lineto
118.0990335861652 277.424324496857 moveto
139.8737745295813 297.7484030318336 lineto
120.6252168509187 258.4439163518547 moveto
118.1357878658434 246.6739252493342 lineto
119.4213062838973 310.8358612754994 moveto
123.8952421784492 318.3397202635672 lineto
123.3605303702129 167.6080076918468 moveto
127.9703473852271 153.764019476687 lineto
312.177063709369 51.60798406194667 moveto
282.6609129300971 0 lineto
312.177063709369 51.60798406194667 moveto
279.0786505197814 62.9277252624889 lineto
312.177063709369 51.60798406194667 moveto
294.786939482596 74.90205754412786 lineto
119.1493231852651 335.6700017132503 moveto
108.3001787259374 400 lineto
127.9703473852271 153.764019476687 moveto
141.6724468337698 152.5070345518948 lineto
123.8952421784492 318.3397202635672 moveto
130.7305448885257 309.6258762902719 lineto
137.581491154268 271.6003638192881 moveto
139.8737745295813 297.7484030318336 lineto
137.581491154268 271.6003638192881 moveto
157.8973336922156 290.6031191789319 lineto
319.9594397506112 358.4586063298712 moveto
343.752082657819 328.2337745071928 lineto
319.9594397506112 358.4586063298712 moveto
288.8772714719093 368.0556959994282 lineto
319.9594397506112 358.4586063298712 moveto
290.1 332.8 lineto
319.9594397506112 358.4586063298712 moveto
316.5970400898588 400.0000000000001 lineto
130.7305448885257 309.6258762902719 moveto
136.2703010515576 316.6144870604002 lineto
53.75961588589659 55.91423475379513 moveto
44.72433824011588 0 lineto
53.75961588589659 55.91423475379513 moveto
0 108.1343525536189 lineto
53.75961588589659 55.91423475379513 moveto
96.23569259013937 0 lineto
456.5685433378608 392.4264075033956 moveto
400 400 lineto
456.5685433378608 392.4264075033956 moveto
456.5685433378608 456.5685433378608 lineto
456.5685433378608 392.4264075033956 moveto
400 328.3636049438037 lineto
456.5685433378608 264.1421358344652 moveto
400 262.5131292649649 lineto
456.5685433378608 264.1421358344652 moveto
400 328.3636049438037 lineto
456.5685433378608 7.573592496604419 moveto
400 66.25187028441353 lineto
456.5685433378608 7.573592496604419 moveto
400 0 lineto
456.5685433378608 7.573592496604419 moveto
456.5685433378608 -56.56854333786077 lineto
142.2435787748741 259.7567899352093 moveto
118.1357878658434 246.6739252493342 lineto
7.573592496604419 456.5685433378608 moveto
49.05297793485852 400 lineto
7.573592496604419 456.5685433378608 moveto
-56.56854333786077 456.5685433378608 lineto
135.8578641655348 456.5685433378608 moveto
151.7721589058113 400 lineto
135.8578641655348 456.5685433378608 moveto
108.3001787259374 400 lineto
392.4264075033956 456.5685433378608 moveto
400 400 lineto
392.4264075033956 456.5685433378608 moveto
456.5685433378608 456.5685433378608 lineto
264.1421358344652 456.5685433378608 moveto
265.8172120429138 400 lineto
264.1421358344652 456.5685433378608 moveto
316.5970400898588 400.0000000000001 lineto
7.573592496604419 -56.56854333786077 moveto
44.72433824011588 0 lineto
7.573592496604419 -56.56854333786077 moveto
-56.56854333786077 -56.56854333786077 lineto
135.8578641655348 -56.56854333786077 moveto
154.54099201901 0 lineto
135.8578641655348 -56.56854333786077 moveto
96.23569259013937 0 lineto
392.4264075033956 -56.56854333786077 moveto
400 0 lineto
392.4264075033956 -56.56854333786077 moveto
456.5685433378608 -56.56854333786077 lineto
264.1421358344652 -56.56854333786077 moveto
282.6609129300971 0 lineto
136.2703010515576 316.6144870604002 moveto
140.6270833582977 307.7732631735109 lineto
-56.56854333786077 7.573592496604419 moveto
-56.56854333786077 -56.56854333786077 lineto
-56.56854333786077 135.8578641655348 moveto
0 161.4534838265585 lineto
-56.56854333786077 135.8578641655348 moveto
0 108.1343525536189 lineto
-56.56854333786077 392.4264075033956 moveto
-56.56854333786077 456.5685433378608 lineto
157.4330069665189 263.731766510074 moveto
157.8973336922156 290.6031191789319 lineto
157.4330069665189 263.731766510074 moveto
185.0536895090354 276.7863200983211 lineto
-56.56854333786077 264.1421358344652 moveto
0 277.3019502903928 lineto
140.6270833582977 307.7732631735109 moveto
151.2619845735448 313.1605201083797 lineto
141.5395233154296 348.00143699646 moveto
151.7721589058113 400 lineto
141.5395233154296 348.00143699646 moveto
108.3001787259374 400 lineto
164.4405822155405 255.0607059777695 moveto
186.6526955208828 226.5751619083518 lineto
343.752082657819 328.2337745071928 moveto
364.7102736933132 294.6323034373755 lineto
343.752082657819 328.2337745071928 moveto
290.1 332.8 lineto
343.752082657819 328.2337745071928 moveto
328.1067429567831 296.3294167892168 lineto
343.752082657819 328.2337745071928 moveto
400 328.3636049438037 lineto
400 262.5131292649649 moveto
364.7102736933132 294.6323034373755 lineto
400 262.5131292649649 moveto
349.3299884664835 257.0590972742847 lineto
400 262.5131292649649 moveto
358.1529666561993 215.7488072718472 lineto
147.8 138.3 moveto
141.6724468337698 152.5070345518948 lineto
147.8 138.3 moveto
152.3 144.4 lineto
147.8 138.3 moveto
163.5481550855428 136.3708259344143 lineto
148.1745220184326 305.9396297454834 moveto
151.2619845735448 313.1605201083797 lineto
400 159.0463618165775 moveto
351.0078124504176 160.2341518781946 lineto
400 159.0463618165775 moveto
356.3250188580879 180.9377272730363 lineto
151.7721589058113 400 moveto
166.2803484288679 356.3134313351732 lineto
151.7721589058113 400 moveto
200.7704141037099 360.4505129533659 lineto
151.2619845735448 313.1605201083797 moveto
160.7925624314452 302.1569575938609 lineto
265.8172120429138 400 moveto
288.8772714719093 368.0556959994282 lineto
265.8172120429138 400 moveto
251.0696465401712 352.278950498809 lineto
282.6609129300971 0 moveto
242.0633377737532 45.63881684178295 lineto
282.6609129300971 0 moveto
279.0786505197814 62.9277252624889 lineto
154.54099201901 0 moveto
175.28964279992 40.89862717863011 lineto
162.9834541933872 158.8526466965466 moveto
186.6526955208828 226.5751619083518 lineto
162.9834541933872 158.8526466965466 moveto
194.7 161.1 lineto
160.7925624314452 302.1569575938609 moveto
171.1967841194422 306.6668684891335 lineto
173.7572998859573 256.0193508634214 moveto
185.0536895090354 276.7863200983211 lineto
163.5481550855428 136.3708259344143 moveto
167.0209286227786 124.9696735001502 lineto
167.0209286227786 124.9696735001502 moveto
179.5944424951369 126.0034043667857 lineto
171.1967841194422 306.6668684891335 moveto
178.6320428313555 295.4335661125855 lineto
179.5465310283889 249.8784784719206 moveto
186.6526955208828 226.5751619083518 lineto
186.6526955208828 226.5751619083518 moveto
191.2373056767779 245.0032114567595 lineto
186.6526955208828 226.5751619083518 moveto
194.7 161.1 lineto
186.6526955208828 226.5751619083518 moveto
199.1149029354565 241.3337975173257 lineto
186.6526955208828 226.5751619083518 moveto
205 238.4 lineto
186.6526955208828 226.5751619083518 moveto
213.2475098516118 174.2789579803871 lineto
185.0536895090354 276.7863200983211 moveto
185.2529007315034 249.9657481520734 lineto
178.6320428313555 295.4335661125855 moveto
193.9161063844009 296.9810393752002 lineto
185.2529007315034 249.9657481520734 moveto
209.8 261.2 lineto
179.5944424951369 126.0034043667857 moveto
186.8228285544015 113.1114799624361 lineto
184.5366851806641 142.1334899902343 moveto
194.7 161.1 lineto
184.5366851806641 142.1334899902343 moveto
199.8260833545087 157.9561243161102 lineto
190 138.3 moveto
199.8260833545087 157.9561243161102 lineto
190 138.3 moveto
203.5104845240984 155.757905113888 lineto
190 138.3 moveto
212.2571717491688 150.7443602349983 lineto
191.5362631513004 246.4451921211102 moveto
209.8 261.2 lineto
186.8228285544015 113.1114799624361 moveto
200.2622642320374 114.4277170435515 lineto
193.9161063844009 296.9810393752002 moveto
200.8950746734737 284.9656017562138 lineto
194.7 161.1 moveto
213.2475098516118 174.2789579803871 lineto
196.0701485057962 243.8124556382772 moveto
209.8 261.2 lineto
200.2622642320374 114.4277170435515 moveto
210.5414442972315 101.2106261943242 lineto
199.8044744354613 241.585781214001 moveto
209.8 261.2 lineto
200.5850970645435 158.1667563797906 moveto
213.2475098516118 174.2789579803871 lineto
200.8950746734737 284.9656017562138 moveto
214.147786702428 286.4527528074101 lineto
205 238.4 moveto
209.8 261.2 lineto
205 238.4 moveto
213.2475098516118 174.2789579803871 lineto
205 238.4 moveto
237.6872749202862 239.9472908377015 lineto
208.3139013437173 154.5661356319281 moveto
213.2475098516118 174.2789579803871 lineto
288.8772714719093 368.0556959994282 moveto
251.0696465401712 352.278950498809 lineto
288.8772714719093 368.0556959994282 moveto
290.1 332.8 lineto
288.8772714719093 368.0556959994282 moveto
316.5970400898588 400.0000000000001 lineto
214.707585880228 107.4918197331147 moveto
210.5414442972315 101.2106261943242 lineto
212.2571717491688 150.7443602349983 moveto
211.0178069921457 124.8939339913587 lineto
210.5414442972315 101.2106261943242 moveto
225.1663639014902 103.0671428517658 lineto
211.0178069921457 124.8939339913587 moveto
224.5400542963613 144.1922190746989 lineto
219.5311558292693 274.4790429725932 moveto
214.147786702428 286.4527528074101 lineto
219.5311558292693 274.4790429725932 moveto
232.8496984986765 275.1269947173445 lineto
364.7102736933132 294.6323034373755 moveto
328.1067429567831 296.3294167892168 lineto
364.7102736933132 294.6323034373755 moveto
349.3299884664835 257.0590972742847 lineto
364.7102736933132 294.6323034373755 moveto
400 328.3636049438037 lineto
213.2475098516118 174.2789579803871 moveto
218.5377959861898 150.2610361539581 lineto
213.2475098516118 174.2789579803871 moveto
237.6872749202862 239.9472908377015 lineto
213.2475098516118 174.2789579803871 moveto
233.0623971611052 145.1259616582496 lineto
213.2475098516118 174.2789579803871 moveto
273.3680083249146 203.5843891793803 lineto
224.5400542963613 144.1922190746989 moveto
230.4085839308858 114.3482648538938 lineto
225.1663639014902 103.0671428517658 moveto
232.4516885638921 92.42148598173004 lineto
230.4085839308858 114.3482648538938 moveto
238.6549540604219 137.3827032395173 lineto
230.4085839308858 114.3482648538938 moveto
258.8604242753747 129.0681340457399 lineto
232.4516885638921 92.42148598173004 moveto
242.4301726657431 96.90949973071334 lineto
232.8496984986765 275.1269947173445 moveto
237.4805446624756 262.8524700164795 lineto
242.4301726657431 96.90949973071334 moveto
250.23820444558 86.95547301893984 lineto
237.4805446624756 262.8524700164795 moveto
252.2 261.7 lineto
247.6 255.6 moveto
252.2 261.7 lineto
247.6 255.6 moveto
267.4319973548422 249.9443027129964 lineto
252.3182332704688 104.5957436725958 moveto
258.8604242753747 129.0681340457399 lineto
250.23820444558 86.95547301893984 moveto
260.4004148003744 92.17200175623799 lineto
260.4004148003744 92.17200175623799 moveto
268.925913131935 83.09469385033884 lineto
258.8604242753747 129.0681340457399 moveto
268.7383413330685 98.98385633350688 lineto
268.7383413330685 98.98385633350688 moveto
286.5343210951232 120.9635178959558 lineto
268.925913131935 83.09469385033884 moveto
276.7847224075504 89.65543501899367 lineto
267.4319973548422 249.9443027129964 moveto
272.1023346568876 236.2183023988506 lineto
272.1023346568876 236.2183023988506 moveto
289.8612224166533 230.7155355909692 lineto
276.7847224075504 89.65543501899367 moveto
284.6650416458772 81.74855253107356 lineto
281.940098535712 95.77472885020276 moveto
286.5343210951232 120.9635178959558 lineto
285.7813502430345 224.1274259853779 moveto
289.8612224166533 230.7155355909692 lineto
288.6599991910345 89.2599007086779 moveto
284.6650416458772 81.74855253107356 lineto
288.6599991910345 89.2599007086779 moveto
293.885870887902 82.05528170725127 lineto
286.5343210951232 120.9635178959558 moveto
292.1551459689578 94.33272425300525 lineto
292.1551459689578 94.33272425300525 moveto
298.4003879566533 119.0458839143469 lineto
293.885870887902 82.05528170725127 moveto
298.0587370937571 90.17104608062967 lineto
289.8612224166533 230.7155355909692 moveto
294.8683843142332 215.4144766900801 lineto
294.8683843142332 215.4144766900801 moveto
307.217514470451 213.5852745791214 lineto
298.0587370937571 90.17104608062967 moveto
303.9 83.7 lineto
301.5391803298684 94.12258860524574 moveto
298.4003879566533 119.0458839143469 lineto
303.9 83.7 moveto
305.6764224933486 92.13088221491691 lineto
307.217514470451 213.5852745791214 moveto
309.5050064836253 199.766925297726 lineto
309.5050064836253 199.766925297726 moveto
322.1909279033993 196.1640601939714 lineto
322.1909279033993 196.1640601939714 moveto
322.4465558773522 183.1934231989337 lineto
322.4465558773522 183.1934231989337 moveto
333.4436344513634 179.946020684776 lineto
332.3292508843266 125.6111878666479 moveto
334.459375 126.590625 lineto
333.7109735466114 126.9747915175913 moveto
334.459375 126.590625 lineto
333.7109735466114 126.9747915175913 moveto
334.540625 126.809375 lineto
334.3445619329809 127.7009258441627 moveto
334.540625 126.809375 lineto
334.540625 126.809375 moveto
334.9 127.9 lineto
333.4436344513634 179.946020684776 moveto
333.0521435186076 164.9989696228116 lineto
333.0521435186076 164.9989696228116 moveto
340.0943910607978 167.4033799559465 lineto
333.0521435186076 164.9989696228116 moveto
343.8146927405542 157.6072924520797 lineto
338.8251112588835 143.0333302083104 moveto
343.8146927405542 157.6072924520797 lineto
338.8251112588835 143.0333302083104 moveto
346 147.6 lineto
400 0 moveto
456.5685433378608 -56.56854333786077 lineto
400 400 moveto
456.5685433378608 456.5685433378608 lineto
stroke


0.1 0.7 0.6 setrgbcolor
-0.4 setlinewidth

64.90000000000001 271.9 moveto
65.50902774389834 271.9819554100744 lineto
82.64999999999998 299.65 moveto
81.89999999999995 298.8 lineto
82.64999999999998 299.65 moveto
83.40000000000001 300.5 lineto
82.91787681579585 300.093060684204 moveto
83.40000000000001 300.5 lineto
83.40000000000001 300.5 moveto
87.18916813796382 303.4267946420237 lineto
194.7 161.1 moveto
200.5850970645435 158.1667563797906 lineto
199.1149029354565 241.3337975173257 moveto
205 238.4 lineto
312.0916046248749 95.93603554945435 moveto
312.7377902475503 95.6761013825419 lineto
317 99.49999999999994 moveto
317.370853805542 100.0365871429443 lineto
334.3445619329809 127.7009258441627 moveto
334.9 127.9 lineto
stroke


[] 0 setdash
0.9 0.3 0.2 setrgbcolor
-0.5 setlinewidth

0 0 moveto
0 43.36179782305196 lineto
0 0 moveto
44.72433824011588 0 lineto
0 400 moveto
0 345.1479290272209 lineto
0 400 moveto
49.05297793485852 400 lineto
42.23515624999999 176.923046875 moveto
43.3648029133775 167.1494014592781 45.4713638851741 157.4600084415839 48.52273172077537 148.0076754749892 curveto
42.23515624999999 176.923046875 moveto
40.3743331435831 193.0227936481399 41.1643371452688 209.3511567274284 44.74868188222744 225.2251175539252 curveto
400 202.8504472361803 moveto
400 262.5131292649649 lineto
400 202.8504472361803 moveto
400 159.0463618165775 lineto
0 212.6483262856171 moveto
0 161.4534838265585 lineto
0 212.6483262856171 moveto
0 277.3019502903928 lineto
213.7938384948632 400 moveto
151.7721589058113 400 lineto
213.7938384948632 400 moveto
265.8172120429138 400 lineto
48.52273172077537 148.0076754749892 moveto
52.16155172020618 136.7355706048968 57.14398738155533 125.8005902939866 63.41558796700247 115.461879720403 curveto
44.74868188222744 225.2251175539252 moveto
46.83914609996454 234.4831408571491 49.88009537269449 243.5866008514746 53.89999999999999 252.4 curveto
216.0444502135842 0 moveto
282.6609129300971 0 lineto
216.0444502135842 0 moveto
154.54099201901 0 lineto
341.3507965854917 0 moveto
282.6609129300971 0 lineto
341.3507965854917 0 moveto
400 0 lineto
63.41558796700247 115.461879720403 moveto
74.74428869160755 96.78655810661623 90.27940235500793 80.05680349610304 109.7 66.80000000000001 curveto
53.89999999999999 252.4 moveto
54.60348892986987 246.753575694465 56.32487475940403 240.7267252749146 59.02228151195533 234.3873385822754 curveto
59.02228151195533 234.3873385822754 moveto
60.86382927503745 230.0593730753676 63.1602940960326 225.5857364271029 65.89835074874395 220.988031655709 curveto
0 43.36179782305196 moveto
0 108.1343525536189 lineto
62.7998078704409 245.9753791067408 moveto
60.48057410966865 254.4076129189385 60.49189944386546 261.910814208378 63.02704467140859 268.1985022621708 curveto
62.7998078704409 245.9753791067408 moveto
64.22258947003482 240.8024520329845 66.52246791865417 235.2798871834205 69.65482369402925 229.4738264381194 curveto
0 345.1479290272209 moveto
0 277.3019502903928 lineto
63.02704467140859 268.1985022621708 moveto
63.54532837632124 269.4839537717922 64.16909637074059 270.7186023099392 64.90000000000001 271.9 curveto
69.65482369402925 229.4738264381194 moveto
72.60097006761126 224.0129190456576 76.28355901443024 218.3012199015786 80.66546483667214 212.3937623932301 curveto
65.89835074874395 220.988031655709 moveto
69.02458566756343 215.7385036050309 72.72649826608342 210.3272351322751 76.98425446115617 204.7863814934551 curveto
65.50902774389834 271.9819554100744 moveto
68.07801916727925 275.0024319347249 71.59787721020081 277.2411097913135 75.93625566744359 278.7337162418139 curveto
358.2985200449294 400 moveto
400 400 lineto
358.2985200449294 400 moveto
316.5970400898588 400.0000000000001 lineto
75.93625566744359 278.7337162418139 moveto
81.68800455725577 280.7125886659701 88.87846748216725 281.3800907390074 97.19923409475045 280.8194787753715 curveto
76.98425446115617 204.7863814934551 moveto
81.19577215537687 199.3057005733068 85.95112626810366 193.6982337496399 91.23112190834931 187.9951000123879 curveto
81.89999999999995 298.8 moveto
82.09634208436263 299.0781512861802 82.30071546332788 299.3482712777586 82.51268211436152 299.610797997268 curveto
82.91787681579585 300.093060684204 moveto
82.77993132313904 299.935187047404 82.64483104219771 299.7744681988886 82.51268211436152 299.610797997268 curveto
80.66546483667214 212.3937623932301 moveto
83.43082047132447 208.6656537642721 86.47469195380828 204.8595807550588 89.78774806300777 200.9893755286549 curveto
83.40000000000001 300.5 moveto
84.11810880047568 301.4035544797196 84.9232437026814 302.2490396643665 85.81183582028807 303.0363511286969 curveto
85.81183582028807 303.0363511286969 moveto
86.50619774143337 303.6515705191009 87.25151982099598 304.2312682114841 88.04609918293755 304.7753943798701 curveto
87.18916813796382 303.4267946420237 moveto
88.53155995428777 303.894895140228 89.96079254141598 304.2823744194667 91.47182678339468 304.5905059025436 curveto
88.04609918293755 304.7753943798701 moveto
89.0476425172549 305.4612490132483 90.1274450464629 306.0905881692265 91.28209656602985 306.6633120655717 curveto
91.28209656602985 306.6633120655717 moveto
92.67783133531012 307.3556167495218 94.18293400589506 307.9651963078804 95.79138125239677 308.4918744987684 curveto
91.23112190834931 187.9951000123879 moveto
96.61544644271476 182.1792764783321 102.5453504139513 176.2639680615457 109.0004784687847 170.2821751074887 curveto
91.47182678339468 304.5905059025436 moveto
94.46784698444054 305.2014570790491 97.78545749373043 305.500464905842 101.385378838885 305.4974556033796 curveto
89.78774806300777 200.9893755286549 moveto
94.46154945204222 195.5295915809012 99.67106506541818 189.9421757493858 105.3900972210567 184.2659622451902 curveto
95.79138125239677 308.4918744987684 moveto
97.03078252210089 308.8977103879663 98.33154556735012 309.2543228413132 99.69091456292389 309.5616312236489 curveto
99.69091456292389 309.5616312236489 moveto
102.5563724682373 310.2094165096156 105.6822388146719 310.6381251284168 109.0427016003459 310.8470018235433 curveto
97.19923409475045 280.8194787753715 moveto
103.5526105124898 280.391419800147 110.5649751276733 279.2473473640179 118.0990335861652 277.424324496857 curveto
96.69999999999999 316.8 moveto
99.74587410968691 317.5857472340932 103.0162284998623 318.1368813972591 106.4873910586079 318.4592517031987 curveto
96.69999999999999 316.8 moveto
99.65691285551736 319.8722749587104 102.7358502350334 322.788609211524 105.9251726998786 325.5470106237476 curveto
101.385378838885 305.4974556033796 moveto
105.3179510446394 305.4941682262157 109.58741853691 305.1304690817111 114.1425758021697 304.4192981913354 curveto
106.4873910586079 318.4592517031987 moveto
108.7028376116526 318.6650024195683 111.0000843004577 318.7775651211708 113.3729765796296 318.7984605532332 curveto
105.9251726998786 325.5470106237476 moveto
110.1486553797102 329.1998430723202 114.5657156005764 332.5757155417518 119.1493231852651 335.6700017132503 curveto
105.3900972210567 184.2659622451902 moveto
110.9129463056179 178.7844629805788 116.9109550512043 173.2201537018644 123.3605303702129 167.6080076918468 curveto
109.0004784687847 170.2821751074887 moveto
114.8914892637619 164.82313439345 121.2199360822084 159.3087216343849 127.9703473852271 153.764019476687 curveto
111.4327083496736 219.4821198251667 moveto
105.4304606335784 232.2607234713826 104.3666877532491 243.1715253737606 109.4 250.6 curveto
111.4327083496736 219.4821198251667 moveto
116.5902886985152 208.5017874282499 125.3942078584116 196.1423575940869 137.1093874585359 183.4281633592803 curveto
109.4 250.6 moveto
111.889063940116 254.2899281217511 115.7081737129022 256.8834026896877 120.6252168509187 258.4439163518547 curveto
109.7 66.80000000000001 moveto
130.151329265923 52.85297007339736 152.6131866623214 44.31970599812662 175.28964279992 40.89862717863011 curveto
109.0427016003459 310.8470018235433 moveto
112.2908316629052 311.0488962399018 115.7581362421309 311.0454100640594 119.4213062838973 310.8358612754994 curveto
113.3729765796296 318.7984605532332 moveto
116.7344272465807 318.8280611232462 120.2476811580426 318.6737066356803 123.8952421784492 318.3397202635672 curveto
137.1093874585359 183.4281633592803 moveto
144.6061381399454 175.292125539395 153.295034400689 167.0108135949117 162.9834541933872 158.8526466965466 curveto
118.0990335861652 277.424324496857 moveto
124.2684901116666 275.9314955805553 130.7877722121222 273.9833915484975 137.581491154268 271.6003638192881 curveto
120.6252168509187 258.4439163518547 moveto
126.428949643938 260.2858372097475 133.7622996578316 260.6886590840479 142.2435787748741 259.7567899352093 curveto
114.1425758021697 304.4192981913354 moveto
117.9589593008682 303.8234678626034 121.9758786212453 302.9837347461051 126.1632201667414 301.9077087759881 curveto
119.4213062838973 310.8358612754994 moveto
123.0103420001861 310.6305532832762 126.7873956457985 310.227438769926 130.7305448885257 309.6258762902719 curveto
123.3605303702129 167.6080076918468 moveto
129.1110891870131 162.6041160985569 135.2206357696328 157.562195115349 141.6724468337698 152.5070345518948 curveto
119.1493231852651 335.6700017132503 moveto
126.2468417363136 340.4613703238238 133.7436940008396 344.5775742278702 141.5395233154296 348.00143699646 curveto
127.9703473852271 153.764019476687 moveto
134.2223719255618 148.6286858795664 140.8363532966288 143.4673703452578 147.8 138.3 curveto
126.1632201667414 301.9077087759881 moveto
130.5573355609213 300.7785478922976 135.13911988376 299.3891813537555 139.8737745295813 297.7484030318336 curveto
123.8952421784492 318.3397202635672 moveto
127.8684411879661 317.9759170768771 132.0009984305794 317.3989768496077 136.2703010515576 316.6144870604002 curveto
137.581491154268 271.6003638192881 moveto
143.976455990489 269.3572067705774 150.614587236188 266.7286829716081 157.4330069665189 263.731766510074 curveto
130.7305448885257 309.6258762902719 moveto
133.9243111255911 309.1386388516818 137.227040084067 308.5212147564769 140.6270833582977 307.7732631735109 curveto
142.2435787748741 259.7567899352093 moveto
148.9818070767752 259.0164361529887 156.4446111329281 257.433622020097 164.4405822155405 255.0607059777695 curveto
136.2703010515576 316.6144870604002 moveto
141.103228863021 315.7264304252391 146.1113910856965 314.5724062983897 151.2619845735448 313.1605201083797 curveto
157.4330069665189 263.731766510074 moveto
162.7738927646367 261.3842740997208 168.2253968952797 258.810749604564 173.7572998859573 256.0193508634214 curveto
139.8737745295813 297.7484030318336 moveto
145.6735608563369 295.7385069805727 151.70273511087 293.3513576673099 157.8973336922156 290.6031191789319 curveto
140.6270833582977 307.7732631735109 moveto
143.0931826530037 307.2307633514627 145.6104771144895 306.6195955595116 148.1745220184326 305.9396297454834 curveto
141.5395233154296 348.00143699646 moveto
149.5097120780309 351.5018769704127 157.7924011294097 354.278660045895 166.2803484288679 356.3134313351732 curveto
164.4405822155405 255.0607059777695 moveto
169.2937508814508 253.6204604260438 174.3433331777817 251.8891488917403 179.5465310283889 249.8784784719206 curveto
400 262.5131292649649 moveto
400 328.3636049438037 lineto
147.8 138.3 moveto
154.1271707714124 133.5908887733053 160.5514702476233 129.143277905684 167.0209286227786 124.9696735001502 curveto
148.1745220184326 305.9396297454834 moveto
152.2674375021654 304.8542187199722 156.4794771937658 303.5935043293571 160.7925624314452 302.1569575938609 curveto
400 159.0463618165775 moveto
400 112.7618413889674 lineto
141.6724468337698 152.5070345518948 moveto
145.1181881060307 149.8072072912632 148.661555015211 147.1036036456318 152.3 144.4 curveto
0 161.4534838265585 moveto
0 108.1343525536189 lineto
151.7721589058113 400 moveto
108.3001787259374 400 lineto
151.2619845735448 313.1605201083797 moveto
157.7054177803898 311.3942393132712 164.3717588793563 309.2243990265894 171.1967841194422 306.6668684891335 curveto
265.8172120429138 400 moveto
316.5970400898588 400.0000000000001 lineto
154.54099201901 0 moveto
96.23569259013937 0 lineto
152.3 144.4 moveto
156.0455515478837 141.6169924253155 159.7976708478967 138.9407108227283 163.5481550855428 136.3708259344143 curveto
162.9834541933872 158.8526466965466 moveto
169.7078368956491 153.1903573297216 176.9137148083097 147.5873899778315 184.5366851806641 142.1334899902343 curveto
157.8973336922156 290.6031191789319 moveto
166.6778111450259 286.7076535139224 175.7906490204683 282.0867096005715 185.0536895090354 276.7863200983211 curveto
49.05297793485852 400 moveto
108.3001787259374 400 lineto
166.2803484288679 356.3134313351732 moveto
177.5009230497647 359.0032811047707 189.0801927884719 360.3964423974849 200.7704141037099 360.4505129533659 curveto
160.7925624314452 302.1569575938609 moveto
166.5721170990105 300.2319781573823 172.5331104330367 297.9912719282465 178.6320428313555 295.4335661125855 curveto
44.72433824011588 0 moveto
96.23569259013937 0 lineto
400 66.25187028441353 moveto
400 0 lineto
400 66.25187028441353 moveto
400 112.7618413889674 lineto
173.7572998859573 256.0193508634214 moveto
177.5545424066383 254.1032619497321 181.3896673242742 252.0845148805764 185.2529007315034 249.9657481520734 curveto
163.5481550855428 136.3708259344143 moveto
168.9082389001462 132.6980206318406 174.2649830505956 129.2425338242252 179.5944424951369 126.0034043667857 curveto
167.0209286227786 124.9696735001502 moveto
173.593119140618 120.7297940993333 180.2119141514406 116.7726924574605 186.8228285544015 113.1114799624361 curveto
171.1967841194422 306.6668684891335 moveto
178.6101068631887 303.8888861910181 186.2106489933593 300.6534975613043 193.9161063844009 296.9810393752002 curveto
179.5465310283889 249.8784784719206 moveto
183.3663114272789 248.4024017055223 187.268880572001 246.7757687543811 191.2373056767779 245.0032114567595 curveto
175.28964279992 40.89862717863011 moveto
187.5059701957574 39.05561349728868 199.7845789574282 38.69627058840442 211.8446764615351 39.77344648314268 curveto
185.0536895090354 276.7863200983211 moveto
193.2272276513866 272.1093529815921 201.5177131883352 266.9033711577334 209.8 261.2 curveto
178.6320428313555 295.4335661125855 moveto
185.8824716431116 292.3929579000768 193.3278431751535 288.9043492458978 200.8950746734737 284.9656017562138 curveto
185.2529007315034 249.9657481520734 moveto
187.3396670317374 248.8212739406982 189.4346346422478 247.6476166507608 191.5362631513004 246.4451921211102 curveto
179.5944424951369 126.0034043667857 moveto
186.5478903639354 121.7772500903578 193.4548916935297 117.9193992210037 200.2622642320374 114.4277170435515 curveto
184.5366851806641 142.1334899902343 moveto
186.3348632812501 140.8469726562499 188.1562499999998 139.5687499999999 190 138.3 curveto
200.7704141037099 360.4505129533659 moveto
217.5524854269769 360.528134745188 234.5632109256061 357.8460959919313 251.0696465401712 352.278950498809 curveto
190 138.3 moveto
197.0237296265182 133.4676740169553 204.0553524974954 128.9925173456637 211.0178069921457 124.8939339913587 curveto
191.5362631513004 246.4451921211102 moveto
193.0443182895874 245.582374319329 194.5558031217486 244.7047442778455 196.0701485057962 243.8124556382772 curveto
186.8228285544015 113.1114799624361 moveto
194.7720025220506 108.7091214865125 202.7097823732734 104.7345720638304 210.5414442972315 101.2106261943242 curveto
191.2373056767779 245.0032114567595 moveto
193.8365060292225 243.8422391740368 196.4639576677523 242.6186673869437 199.1149029354565 241.3337975173257 curveto
193.9161063844009 296.9810393752002 moveto
200.5989808214665 293.7959491608748 207.3607718685134 290.2820979309485 214.147786702428 286.4527528074101 curveto
194.7 161.1 moveto
196.4111656282858 160.0338531910992 198.120128960349 158.9858220446748 199.8260833545087 157.9561243161102 curveto
196.0701485057962 243.8124556382772 moveto
197.3131015959137 243.0800778508111 198.5579818090106 242.3378247237777 199.8044744354613 241.585781214001 curveto
200.2622642320374 114.4277170435515 moveto
205.1349182419988 111.9284033851273 209.9565268094127 109.6166985767288 214.707585880228 107.4918197331147 curveto
199.8044744354613 241.585781214001 moveto
201.5334938730401 240.5426159206676 203.26561570289 239.4806132692275 205 238.4 curveto
199.8260833545087 157.9561243161102 moveto
201.0558814810494 157.2138299489059 202.2841159342001 156.4810630224734 203.5104845240984 155.757905113888 curveto
200.5850970645435 158.1667563797906 moveto
203.1854677575718 156.906880379532 205.7632326905959 155.7062841509409 208.3139013437173 154.5661356319281 curveto
200.8950746734737 284.9656017562138 moveto
207.0397940931812 281.7672724604129 213.2648644834597 278.2721345126056 219.5311558292693 274.4790429725932 curveto
203.5104845240984 155.757905113888 moveto
206.4380501150697 154.031595236538 209.3549828228698 152.3600436937251 212.2571717491688 150.7443602349983 curveto
208.3139013437173 154.5661356319281 moveto
211.7755144247937 153.0187950853796 215.187220831949 151.5827887936475 218.5377959861898 150.2610361539581 curveto
209.8 261.2 moveto
219.8013118472368 254.3346927150323 229.1417206524425 247.1877832643296 237.6872749202862 239.9472908377015 curveto
214.707585880228 107.4918197331147 moveto
218.2354047231962 105.9140267585812 221.7243257150091 104.4392413024631 225.1663639014902 103.0671428517658 curveto
212.2571717491688 150.7443602349983 moveto
216.3852392565571 148.4462154354796 220.48347691141 146.2611038296231 224.5400542963613 144.1922190746989 curveto
210.5414442972315 101.2106261943242 moveto
217.9671764605403 97.86933306407532 225.29750618946 94.93314279462879 232.4516885638921 92.42148598173004 curveto
211.0178069921457 124.8939339913587 moveto
217.5638910510939 121.0404551383907 224.0488322151273 117.5198564825751 230.4085839308858 114.3482648538938 curveto
219.5311558292693 274.4790429725932 moveto
225.488238380912 270.8731207160573 231.4825741789987 266.9979242892276 237.4805446624756 262.8524700164795 curveto
214.147786702428 286.4527528074101 moveto
220.3743471908353 282.9396252209563 226.6221376362268 279.1609577365799 232.8496984986765 275.1269947173445 curveto
218.5377959861898 150.2610361539581 moveto
223.5272442629175 148.2927721614279 228.3811331454827 146.5778672137985 233.0623971611052 145.1259616582496 curveto
224.5400542963613 144.1922190746989 moveto
229.3090049713074 141.7600186229134 234.0203787553033 139.4884503690801 238.6549540604219 137.3827032395173 curveto
225.1663639014902 103.0671428517658 moveto
231.0724455360234 100.7128036430192 236.840494746948 98.66079566489998 242.4301726657431 96.90949973071334 curveto
211.8446764615351 39.77344648314268 moveto
222.1347817030506 40.6925313675481 232.2658083258164 42.6574178716804 242.0633377737532 45.63881684178295 curveto
230.4085839308858 114.3482648538938 moveto
237.9217128131035 110.6014870340933 245.2601271425114 107.3417838640623 252.3182332704688 104.5957436725958 curveto
232.4516885638921 92.42148598173004 moveto
238.5238799060307 90.28968950863307 244.4691755184449 88.4637249506265 250.23820444558 86.95547301893984 curveto
238.6549540604219 137.3827032395173 moveto
245.5831362091599 134.2348420629645 252.3396970030475 131.4575409082535 258.8604242753747 129.0681340457399 curveto
237.6872749202862 239.9472908377015 moveto
252.0316213569924 227.7935874634549 264.1363767821861 215.3762036522715 273.3680083249146 203.5843891793803 curveto
232.8496984986765 275.1269947173445 moveto
239.3373787293944 270.9245368515136 245.8031041421798 266.4450111389032 252.2 261.7 curveto
242.4301726657431 96.90949973071334 moveto
248.6604726924631 94.957491177793 254.6691729457516 93.37907256755794 260.4004148003744 92.17200175623799 curveto
237.4805446624756 262.8524700164795 moveto
240.854541015625 260.520556640625 244.2296875 258.1031249999999 247.6 255.6 curveto
233.0623971611052 145.1259616582496 moveto
239.4614926468126 143.1412664444824 245.5380253420433 141.6480057459499 251.1973201168177 140.6708035874897 curveto
242.0633377737532 45.63881684178295 moveto
255.1332753460817 49.61601319771226 267.6097329968102 55.40215962621678 279.0786505197814 62.9277252624889 curveto
247.6 255.6 moveto
256.3260414227283 249.1221526556163 264.5051666744607 242.6443053112331 272.1023346568876 236.2183023988506 curveto
252.3182332704688 104.5957436725958 moveto
257.9909437863808 102.3887081323469 263.4825867296332 100.5134777558869 268.7383413330685 98.98385633350688 curveto
252.2 261.7 moveto
257.4800190636704 257.7750300765637 262.5591742131128 253.8535534385923 267.4319973548422 249.9443027129964 curveto
250.23820444558 86.95547301893984 moveto
256.7127168164095 85.26277986150028 262.965215916783 83.9702554547394 268.925913131935 83.09469385033884 curveto
251.1973201168177 140.6708035874897 moveto
258.2738014264899 139.4488928927263 264.6979129048533 139.0338624124082 270.2845568378672 139.4738541528777 curveto
260.4004148003744 92.17200175623799 moveto
266.161072190897 90.95873566723037 271.6414157694514 90.12063903634852 276.7847224075504 89.65543501899367 curveto
251.0696465401712 352.278950498809 moveto
264.5491055428576 347.7327170666609 277.6922709657015 341.262505176016 290.1 332.8 curveto
258.8604242753747 129.0681340457399 moveto
268.6949207577046 125.4644542102148 277.9929814789256 122.7430932600126 286.5343210951232 120.9635178959558 curveto
268.7383413330685 98.98385633350688 moveto
273.3312640219524 97.64714382191812 277.7440448745725 96.57436394754926 281.940098535712 95.77472885020276 curveto
268.925913131935 83.09469385033884 moveto
274.4404649948282 82.28466614680916 279.705261725556 81.83151961878171 284.6650416458772 81.74855253107356 curveto
279.0786505197814 62.9277252624889 moveto
284.5599497739402 66.52439227370445 289.8111130498463 70.51836647888999 294.786939482596 74.90205754412786 curveto
267.4319973548422 249.9443027129964 moveto
275.4793618322251 243.4882577248378 282.963980008217 237.0655574758055 289.8612224166533 230.7155355909692 curveto
272.1023346568876 236.2183023988506 moveto
276.8967090865805 232.1630196777732 281.4593165502095 228.1283842229919 285.7813502430345 224.1274259853779 curveto
276.7847224075504 89.65543501899367 moveto
280.9773465884334 89.27621873860342 284.9460138221649 89.14478506396497 288.6599991910345 89.2599007086779 curveto
273.3680083249146 203.5843891793803 moveto
281.5899870594064 193.0822317450801 287.5329353546998 183.0762908409814 290.7492813094627 174.1947946631367 curveto
270.2845568378672 139.4738541528777 moveto
279.5291240868439 140.2019358567658 286.4805059091287 143.2712718660847 290.3 148.9 curveto
281.940098535712 95.77472885020276 moveto
285.5094431627704 95.09452467055797 288.9219653161804 94.61196638529442 292.1551459689578 94.33272425300525 curveto
285.7813502430345 224.1274259853779 moveto
288.9399990517832 221.2034270373661 291.9701562823976 218.2974152488295 294.8683843142332 215.4144766900801 curveto
288.6599991910345 89.2599007086779 moveto
292.0072818239827 89.36365033611541 295.1476921237211 89.66766641351356 298.0587370937571 90.17104608062967 curveto
284.6650416458772 81.74855253107356 moveto
287.871075314863 81.69492207147997 290.9496603686294 81.79596786395378 293.885870887902 82.05528170725127 curveto
290.1 332.8 moveto
305.1516079399962 322.49265888269 317.8717352416598 310.0974246564256 328.1067429567831 296.3294167892168 curveto
290.3 148.9 moveto
294.5415889247233 155.1892525435555 294.4618966669496 163.9429189100001 290.7492813094627 174.1947946631367 curveto
286.5343210951232 120.9635178959558 moveto
290.6759706492322 120.1006113913282 294.6396978302852 119.4591401358097 298.4003879566533 119.0458839143469 curveto
294.786939482596 74.90205754412786 moveto
297.9389421885234 77.67896431254655 300.9804589464607 80.61225493514567 303.9 83.7 curveto
292.1551459689578 94.33272425300525 moveto
295.4811112858681 94.04546852969263 298.6172940478863 93.9733657900796 301.5391803298684 94.12258860524574 curveto
293.885870887902 82.05528170725127 moveto
297.441534149528 82.3693030281994 300.7884124632142 82.91541632310276 303.9 83.7 curveto
289.8612224166533 230.7155355909692 moveto
296.1395331999474 224.9353398963883 301.9311559523662 219.2153640677124 307.217514470451 213.5852745791214 curveto
294.8683843142332 215.4144766900801 moveto
300.2010420517103 210.1099511513324 305.0870540033842 204.8835399416695 309.5050064836253 199.766925297726 curveto
298.0587370937571 90.17104608062967 moveto
300.8090198761672 90.64662665246374 303.3545711706913 91.3001591597811 305.6764224933486 92.13088221491691 curveto
301.5391803298684 94.12258860524574 moveto
304.0352282374474 94.25006355108988 306.3748914483991 94.53905272121844 308.5428879105788 94.99340411437301 curveto
298.4003879566533 119.0458839143469 moveto
301.7283544534239 118.6801790002494 304.8973205944155 118.4931915703355 307.889881867091 118.4896200258757 curveto
307.889881867091 118.4896200258757 moveto
314.1689984197038 118.4821260627144 319.6714717570205 119.2821421437849 324.2365232417187 120.9330709528712 curveto
305.6764224933486 92.13088221491691 moveto
307.506388476301 92.78561618402105 309.1973965888929 93.55041731570793 310.7401601945013 94.42491284794872 curveto
308.5428879105788 94.99340411437301 moveto
309.7829064278283 95.25327729713801 310.9667651667623 95.56724776929298 312.0916046248749 95.93603554945435 curveto
307.217514470451 213.5852745791214 moveto
312.7740796108292 207.6674090233723 317.7724083523584 201.8488535382456 322.1909279033993 196.1640601939714 curveto
310.7401601945013 94.42491284794872 moveto
311.4365247689982 94.81963807156339 312.1026861281657 95.23671234316578 312.7377902475503 95.6761013825419 curveto
312.7377902475503 95.6761013825419 moveto
313.6963452292623 96.33926595626826 314.5841533698791 97.05326245648996 315.3982784628566 97.81797302500405 curveto
309.5050064836253 199.766925297726 moveto
314.404164817879 194.0930061263108 318.7277481704831 188.5541043194753 322.4465558773522 183.1934231989337 curveto
315.3982784628566 97.81797302500405 moveto
315.9686938907273 98.35376624633913 316.5029377097727 98.91445541727137 317 99.49999999999994 curveto
317.370853805542 100.0365871429443 moveto
317.55458984375 100.253955078125 317.7312499999999 100.4749999999999 317.9 100.6999999999999 curveto
322.1909279033993 196.1640601939714 moveto
326.4999199138933 190.6201831512606 330.2574914205697 185.203518971523 333.4436344513634 179.946020684776 curveto
324.2365232417187 120.9330709528712 moveto
327.4030072725955 122.0782146007818 330.1184686892925 123.6327586503971 332.3292508843266 125.6111878666479 curveto
322.4465558773522 183.1934231989337 moveto
326.8431554912012 176.855701433701 330.3944360010194 170.7670858484555 333.0521435186076 164.9989696228116 curveto
332.3292508843266 125.6111878666479 moveto
332.8143086483448 126.0452661101122 333.2750717745449 126.4997496648269 333.7109735466114 126.9747915175913 curveto
333.7109735466114 126.9747915175913 moveto
333.92837728257 127.2117161647159 334.1395968471484 127.4537546136771 334.3445619329809 127.7009258441627 curveto
334.459375 126.590625 moveto
334.490625 126.659375 334.509375 126.740625 334.540625 126.809375 curveto
328.1067429567831 296.3294167892168 moveto
337.1617521292046 284.1487286067034 344.2716308510439 270.8935553872443 349.3299884664835 257.0590972742847 curveto
334.9 127.9 moveto
335.1215408374459 128.2514567606392 335.3335438853948 128.6076450129305 335.5360528771674 128.9685000520209 curveto
333.4436344513634 179.946020684776 moveto
336.0451472066885 175.6532288289544 338.2656965551934 171.4665506573512 340.0943910607978 167.4033799559465 curveto
335.5360528771674 128.9685000520209 moveto
337.8446500974804 133.0822380786055 338.919405427222 137.8024689402544 338.8251112588835 143.0333302083104 curveto
333.0521435186076 164.9989696228116 moveto
336.7392627485402 156.996684903628 338.7065341301161 149.6112609656049 338.8251112588835 143.0333302083104 curveto
340.0943910607978 167.4033799559465 moveto
341.603332364053 164.0506679120612 342.8454725824329 160.782048045767 343.8146927405542 157.6072924520797 curveto
343.8146927405542 157.6072924520797 moveto
344.8682008521873 154.1564451472901 345.5992560171888 150.8164977567708 346 147.6 curveto
346 147.6 moveto
347.8863927133592 151.7513694314758 349.5546438259072 155.9674996506922 351.0078124504176 160.2341518781946 curveto
349.3299884664835 257.0590972742847 moveto
354.2213334336035 243.6814138030502 357.1943917007524 229.762066634947 358.1529666561993 215.7488072718472 curveto
351.0078124504176 160.2341518781946 moveto
353.321186008536 167.0264540778911 355.0894741519093 173.9467946413401 356.3250188580879 180.9377272730363 curveto
356.3250188580879 180.9377272730363 moveto
358.3571095515415 192.4356593740694 358.9481226913619 204.1245438884275 358.1529666561993 215.7488072718472 curveto
400 400 moveto
400 328.3636049438037 lineto
stroke


