%!PS-Adobe-3.0 EPSF-3.0
%%BoundingBox: -31.9747831930594 28.46260840347031 410.1747831930593 390.7373915965297

%%Pages: 1
%%Page: 1 1
/show-ctr {
dup stringwidth pop
 -2 div 0
 rmoveto show
} def

 2 setlinejoin

0 0 0 setrgbcolor
-0.3 setlinewidth

47.9 350.8 moveto
75.51922185884857 313.957335042788 lineto
125.7 209.6 moveto
97.67770263163592 207.321016407058 lineto
125.7 209.6 moveto
109.5657837172919 232.699943510798 lineto
80.28496510478014 113.3526751107114 moveto
118.6312680097927 104.0393400045892 lineto
80.28496510478014 113.3526751107114 moveto
47.9 150.2626351810867 lineto
80.28496510478014 113.3526751107114 moveto
99.82610338652036 141.4011729565576 lineto
80.28496510478014 113.3526751107114 moveto
82.53292685112672 68.40000000000001 lineto
80.28496510478014 113.3526751107114 moveto
47.9 104.0517976003761 lineto
130.1701730592993 186.2154859631622 moveto
97.67770263163592 207.321016407058 lineto
130.1701730592993 186.2154859631622 moveto
91.74053481155784 174.7260439456371 lineto
130.1701730592993 186.2154859631622 moveto
121.1970468699436 159.6141001687018 lineto
215.7286355722806 308.0081666115047 moveto
187.076410503585 310.1505899673562 lineto
215.7286355722806 308.0081666115047 moveto
244.0137306729925 307.1783952564836 lineto
215.7286355722806 308.0081666115047 moveto
215.5556614293824 350.8 lineto
215.7286355722806 308.0081666115047 moveto
213.2683378019665 287.815405238095 lineto
134.5261836633255 241.868538399669 moveto
110.0256105229637 261.570343123738 lineto
134.5261836633255 241.868538399669 moveto
109.5657837172919 232.699943510798 lineto
134.5261836633255 241.868538399669 moveto
136.3106654625169 272.5124932837717 lineto
149.5578232725108 160.0421927477415 moveto
158.0131952763198 137.0303063961797 lineto
149.5578232725108 160.0421927477415 moveto
133.341689955977 135.250845389944 lineto
149.5578232725108 160.0421927477415 moveto
121.1970468699436 159.6141001687018 lineto
159.6401655070659 265.7398089741044 moveto
157.7493232244245 291.717331984253 lineto
159.6401655070659 265.7398089741044 moveto
136.3106654625169 272.5124932837717 lineto
173.0410965058699 148.2675321011276 moveto
158.0131952763198 137.0303063961797 lineto
173.0410965058699 148.2675321011276 moveto
178.2402350204354 128.7854094468815 lineto
189.1 146.2 moveto
206.0387084256155 127.6654360475269 lineto
189.1 146.2 moveto
178.2402350204354 128.7854094468815 lineto
189.1 273 moveto
187.076410503585 310.1505899673562 lineto
189.1 273 moveto
157.7493232244245 291.717331984253 lineto
189.1 273 moveto
213.2683378019665 287.815405238095 lineto
212.6127901266948 268.4787627286614 moveto
213.2683378019665 287.815405238095 lineto
212.6127901266948 268.4787627286614 moveto
232.3025097743457 272.3119998911908 lineto
215.4463270224702 151.9334494492253 moveto
239.6305982123957 139.5588274495887 lineto
215.4463270224702 151.9334494492253 moveto
206.0387084256155 127.6654360475269 lineto
232.9685485659685 163.8276235408815 moveto
239.6305982123957 139.5588274495887 lineto
232.9685485659685 163.8276235408815 moveto
250.97226227815 163.964394788711 lineto
235.5304080029882 252.7714861068744 moveto
261.3753566118403 261.4608841554564 lineto
235.5304080029882 252.7714861068744 moveto
232.3025097743457 272.3119998911908 lineto
248.2645150617994 232.384208511645 moveto
261.3753566118403 261.4608841554564 lineto
248.2645150617994 232.384208511645 moveto
279.048115268064 219.5631114031393 lineto
245.8491159214628 181.3316812998654 moveto
265.7038879652817 182.4867635895673 lineto
245.8491159214628 181.3316812998654 moveto
250.97226227815 163.964394788711 lineto
252.5 209.6 moveto
265.7038879652817 182.4867635895673 lineto
252.5 209.6 moveto
279.048115268064 219.5631114031393 lineto
330.3 350.8 moveto
293.9318411906516 324.2861909921753 lineto
97.67770263163592 207.321016407058 moveto
47.9 209.6 lineto
97.67770263163592 207.321016407058 moveto
80.27529615457256 242.8063422500538 lineto
97.67770263163592 207.321016407058 moveto
91.74053481155784 174.7260439456371 lineto
97.67770263163592 207.321016407058 moveto
109.5657837172919 232.699943510798 lineto
330.3 211.6113148363981 moveto
296.2000334290226 250.8934154419754 lineto
330.3 211.6113148363981 moveto
297.2825550362732 177.0757141445889 lineto
330.3 211.6113148363981 moveto
279.048115268064 219.5631114031393 lineto
171.2900437777874 350.8 moveto
187.076410503585 310.1505899673562 lineto
171.2900437777874 350.8 moveto
152.5505360679526 322.0446996975745 lineto
207.4726386565953 68.40000000000001 moveto
188.3868137674662 102.1129482350229 lineto
207.4726386565953 68.40000000000001 moveto
226.9787858982954 103.0669160317792 lineto
47.9 209.6 moveto
80.27529615457256 242.8063422500538 lineto
47.9 209.6 moveto
91.74053481155784 174.7260439456371 lineto
188.3868137674662 102.1129482350229 moveto
155.0615221500437 112.3260336893329 lineto
188.3868137674662 102.1129482350229 moveto
226.9787858982954 103.0669160317792 lineto
188.3868137674662 102.1129482350229 moveto
153.7749908047683 68.40000000000001 lineto
188.3868137674662 102.1129482350229 moveto
206.0387084256155 127.6654360475269 lineto
188.3868137674662 102.1129482350229 moveto
178.2402350204354 128.7854094468815 lineto
187.076410503585 310.1505899673562 moveto
152.5505360679526 322.0446996975745 lineto
187.076410503585 310.1505899673562 moveto
157.7493232244245 291.717331984253 lineto
187.076410503585 310.1505899673562 moveto
215.5556614293824 350.8 lineto
187.076410503585 310.1505899673562 moveto
213.2683378019665 287.815405238095 lineto
110.0256105229637 261.570343123738 moveto
85.56060866806881 280.5230122352621 lineto
110.0256105229637 261.570343123738 moveto
117.7436003754996 303.9162733132203 lineto
110.0256105229637 261.570343123738 moveto
80.27529615457256 242.8063422500538 lineto
110.0256105229637 261.570343123738 moveto
109.5657837172919 232.699943510798 lineto
110.0256105229637 261.570343123738 moveto
136.3106654625169 272.5124932837717 lineto
239.6305982123957 139.5588274495887 moveto
271.5439327074258 151.5938436551272 lineto
239.6305982123957 139.5588274495887 moveto
272.7160937372365 109.426755629717 lineto
239.6305982123957 139.5588274495887 moveto
226.9787858982954 103.0669160317792 lineto
239.6305982123957 139.5588274495887 moveto
206.0387084256155 127.6654360475269 lineto
239.6305982123957 139.5588274495887 moveto
250.97226227815 163.964394788711 lineto
261.3753566118403 261.4608841554564 moveto
244.0137306729925 307.1783952564836 lineto
261.3753566118403 261.4608841554564 moveto
293.3891846088528 287.2064076133537 lineto
261.3753566118403 261.4608841554564 moveto
296.2000334290226 250.8934154419754 lineto
261.3753566118403 261.4608841554564 moveto
279.048115268064 219.5631114031393 lineto
261.3753566118403 261.4608841554564 moveto
232.3025097743457 272.3119998911908 lineto
155.0615221500437 112.3260336893329 moveto
118.6312680097927 104.0393400045892 lineto
155.0615221500437 112.3260336893329 moveto
158.0131952763198 137.0303063961797 lineto
155.0615221500437 112.3260336893329 moveto
153.7749908047683 68.40000000000001 lineto
155.0615221500437 112.3260336893329 moveto
178.2402350204354 128.7854094468815 lineto
155.0615221500437 112.3260336893329 moveto
133.341689955977 135.250845389944 lineto
271.5439327074258 151.5938436551272 moveto
299.627333840425 137.4994965539307 lineto
271.5439327074258 151.5938436551272 moveto
272.7160937372365 109.426755629717 lineto
271.5439327074258 151.5938436551272 moveto
297.2825550362732 177.0757141445889 lineto
271.5439327074258 151.5938436551272 moveto
265.7038879652817 182.4867635895673 lineto
271.5439327074258 151.5938436551272 moveto
250.97226227815 163.964394788711 lineto
118.6312680097927 104.0393400045892 moveto
118.5971908746105 68.40000000000001 lineto
118.6312680097927 104.0393400045892 moveto
99.82610338652036 141.4011729565576 lineto
118.6312680097927 104.0393400045892 moveto
82.53292685112672 68.40000000000001 lineto
118.6312680097927 104.0393400045892 moveto
153.7749908047683 68.40000000000001 lineto
118.6312680097927 104.0393400045892 moveto
133.341689955977 135.250845389944 lineto
299.627333840425 137.4994965539307 moveto
330.3 145.9818814977087 lineto
299.627333840425 137.4994965539307 moveto
272.7160937372365 109.426755629717 lineto
299.627333840425 137.4994965539307 moveto
297.2825550362732 177.0757141445889 lineto
299.627333840425 137.4994965539307 moveto
330.2999999999999 104.6918393208757 lineto
244.0137306729925 307.1783952564836 moveto
264.7457340856829 350.8 lineto
244.0137306729925 307.1783952564836 moveto
293.3891846088528 287.2064076133537 lineto
244.0137306729925 307.1783952564836 moveto
293.9318411906516 324.2861909921753 lineto
244.0137306729925 307.1783952564836 moveto
215.5556614293824 350.8 lineto
244.0137306729925 307.1783952564836 moveto
213.2683378019665 287.815405238095 lineto
244.0137306729925 307.1783952564836 moveto
232.3025097743457 272.3119998911908 lineto
85.56060866806881 280.5230122352621 moveto
47.90000000000001 279.7474595267051 lineto
85.56060866806881 280.5230122352621 moveto
117.7436003754996 303.9162733132203 lineto
85.56060866806881 280.5230122352621 moveto
80.27529615457256 242.8063422500538 lineto
85.56060866806881 280.5230122352621 moveto
75.51922185884857 313.957335042788 lineto
47.90000000000001 279.7474595267051 moveto
80.27529615457256 242.8063422500538 lineto
47.90000000000001 279.7474595267051 moveto
75.51922185884857 313.957335042788 lineto
251.8942807053054 68.40000000000001 moveto
272.7160937372365 109.426755629717 lineto
251.8942807053054 68.40000000000001 moveto
226.9787858982954 103.0669160317792 lineto
264.7457340856829 350.8 moveto
293.9318411906516 324.2861909921753 lineto
330.3 270.2541110953056 moveto
293.3891846088528 287.2064076133537 lineto
330.3 270.2541110953056 moveto
296.2000334290226 250.8934154419754 lineto
47.9 150.2626351810867 moveto
99.82610338652036 141.4011729565576 lineto
47.9 150.2626351810867 moveto
91.74053481155784 174.7260439456371 lineto
129.1443940963024 350.8 moveto
117.7436003754996 303.9162733132203 lineto
129.1443940963024 350.8 moveto
152.5505360679526 322.0446996975745 lineto
330.3 145.9818814977087 moveto
297.2825550362732 177.0757141445889 lineto
99.82610338652036 141.4011729565576 moveto
91.74053481155784 174.7260439456371 lineto
99.82610338652036 141.4011729565576 moveto
133.341689955977 135.250845389944 lineto
99.82610338652036 141.4011729565576 moveto
121.1970468699436 159.6141001687018 lineto
272.7160937372365 109.426755629717 moveto
226.9787858982954 103.0669160317792 lineto
272.7160937372365 109.426755629717 moveto
293.5143767192587 68.40000000000001 lineto
272.7160937372365 109.426755629717 moveto
330.2999999999999 104.6918393208757 lineto
117.7436003754996 303.9162733132203 moveto
152.5505360679526 322.0446996975745 lineto
117.7436003754996 303.9162733132203 moveto
157.7493232244245 291.717331984253 lineto
117.7436003754996 303.9162733132203 moveto
75.51922185884857 313.957335042788 lineto
117.7436003754996 303.9162733132203 moveto
87.7290595624892 350.8 lineto
117.7436003754996 303.9162733132203 moveto
136.3106654625169 272.5124932837717 lineto
293.3891846088528 287.2064076133537 moveto
296.2000334290226 250.8934154419754 lineto
293.3891846088528 287.2064076133537 moveto
293.9318411906516 324.2861909921753 lineto
293.3891846088528 287.2064076133537 moveto
330.3 311.9815862351323 lineto
80.27529615457256 242.8063422500538 moveto
47.9 241.9461136790547 lineto
80.27529615457256 242.8063422500538 moveto
109.5657837172919 232.699943510798 lineto
226.9787858982954 103.0669160317792 moveto
206.0387084256155 127.6654360475269 lineto
296.2000334290226 250.8934154419754 moveto
279.048115268064 219.5631114031393 lineto
91.74053481155784 174.7260439456371 moveto
121.1970468699436 159.6141001687018 lineto
152.5505360679526 322.0446996975745 moveto
157.7493232244245 291.717331984253 lineto
297.2825550362732 177.0757141445889 moveto
265.7038879652817 182.4867635895673 lineto
297.2825550362732 177.0757141445889 moveto
330.3 177.038500122086 lineto
297.2825550362732 177.0757141445889 moveto
279.048115268064 219.5631114031393 lineto
157.7493232244245 291.717331984253 moveto
136.3106654625169 272.5124932837717 lineto
265.7038879652817 182.4867635895673 moveto
279.048115268064 219.5631114031393 lineto
265.7038879652817 182.4867635895673 moveto
250.97226227815 163.964394788711 lineto
158.0131952763198 137.0303063961797 moveto
178.2402350204354 128.7854094468815 lineto
158.0131952763198 137.0303063961797 moveto
133.341689955977 135.250845389944 lineto
75.51922185884857 313.957335042788 moveto
47.9 315.4999999999999 lineto
75.51922185884857 313.957335042788 moveto
87.7290595624892 350.8 lineto
293.9318411906516 324.2861909921753 moveto
330.3 311.9815862351323 lineto
293.9318411906516 324.2861909921753 moveto
294.9999999999999 350.8 lineto
293.5143767192587 68.40000000000001 moveto
330.2999999999999 104.6918393208757 lineto
82.53292685112672 68.40000000000001 moveto
47.9 104.0517976003761 lineto
206.0387084256155 127.6654360475269 moveto
178.2402350204354 128.7854094468815 lineto
213.2683378019665 287.815405238095 moveto
232.3025097743457 272.3119998911908 lineto
133.341689955977 135.250845389944 moveto
121.1970468699436 159.6141001687018 lineto
stroke


0.1 0.7 0.6 setrgbcolor
-0.4 setlinewidth

stroke


[] 0 setdash
0.9 0.3 0.2 setrgbcolor
-0.5 setlinewidth

47.9 68.40000000000001 moveto
82.53292685112672 68.40000000000001 lineto
47.9 68.40000000000001 moveto
47.9 104.0517976003761 lineto
47.9 350.8 moveto
47.9 315.4999999999999 lineto
47.9 350.8 moveto
87.7290595624892 350.8 lineto
125.7 209.6 moveto
125.6908047847212 202.1227068714663 127.0559908722957 194.0425454409929 130.1701730592993 186.2154859631622 curveto
125.7 209.6 moveto
125.6596489654708 219.9535415239095 128.380855663946 231.5402701298271 134.5261836633255 241.868538399669 curveto
130.1701730592993 186.2154859631622 moveto
134.0572135979578 176.3052280972291 140.8681162746346 166.9236862647503 149.5578232725108 160.0421927477415 curveto
134.5261836633255 241.868538399669 moveto
140.3837520783378 251.8813421579508 149.4190341807825 260.4376995627259 159.6401655070659 265.7398089741044 curveto
149.5578232725108 160.0421927477415 moveto
156.6368231822573 154.3738734919477 164.8543893113466 150.393657707471 173.0410965058699 148.2675321011276 curveto
159.6401655070659 265.7398089741044 moveto
169.2396321928983 270.8016804595551 179.6707515384409 273.0263489798363 189.1 273 curveto
173.0410965058699 148.2675321011276 moveto
178.4978303675838 146.8372184472167 183.9361326339805 146.1982470136607 189.1 146.2 curveto
189.1 146.2 moveto
197.522599686311 146.1842321928794 206.7264854029496 147.9352391252499 215.4463270224702 151.9334494492253 curveto
189.1 273 moveto
196.6180481774873 273.009423903316 204.7461009577613 271.6287261016747 212.6127901266948 268.4787627286614 curveto
212.6127901266948 268.4787627286614 moveto
221.0435343584486 265.1357342811348 229.1028476929866 259.7152450467033 235.5304080029882 252.7714861068744 curveto
215.4463270224702 151.9334494492253 moveto
221.7673186450751 154.813292500285 227.7930311270589 158.8575619376365 232.9685485659685 163.8276235408815 curveto
232.9685485659685 163.8276235408815 moveto
238.2746987356157 168.9020377730886 242.6689040172463 174.9289975811749 245.8491159214628 181.3316812998654 curveto
235.5304080029882 252.7714861068744 moveto
241.1189094528503 246.7781171802112 245.4595995166098 239.7015611057933 248.2645150617994 232.384208511645 curveto
248.2645150617994 232.384208511645 moveto
251.2142138652839 224.7436552574616 252.5081833806138 216.8867507063388 252.5 209.6 curveto
245.8491159214628 181.3316812998654 moveto
250.4872513383871 190.6025752203765 252.5217708789835 200.5578964911188 252.5 209.6 curveto
330.3 68.40000000000001 moveto
293.5143767192587 68.40000000000001 lineto
330.3 68.40000000000001 moveto
330.2999999999999 104.6918393208757 lineto
330.3 350.8 moveto
330.3 311.9815862351323 lineto
330.3 350.8 moveto
294.9999999999999 350.8 lineto
330.3 211.6113148363981 moveto
330.3 270.2541110953056 lineto
330.3 211.6113148363981 moveto
330.3 177.038500122086 lineto
171.2900437777874 350.8 moveto
129.1443940963024 350.8 lineto
171.2900437777874 350.8 moveto
215.5556614293824 350.8 lineto
207.4726386565953 68.40000000000001 moveto
251.8942807053054 68.40000000000001 lineto
207.4726386565953 68.40000000000001 moveto
153.7749908047683 68.40000000000001 lineto
47.9 209.6 moveto
47.9 150.2626351810867 lineto
47.9 209.6 moveto
47.9 241.9461136790547 lineto
47.90000000000001 279.7474595267051 moveto
47.9 315.4999999999999 lineto
47.90000000000001 279.7474595267051 moveto
47.9 241.9461136790547 lineto
251.8942807053054 68.40000000000001 moveto
293.5143767192587 68.40000000000001 lineto
264.7457340856829 350.8 moveto
294.9999999999999 350.8 lineto
264.7457340856829 350.8 moveto
215.5556614293824 350.8 lineto
330.3 270.2541110953056 moveto
330.3 311.9815862351323 lineto
47.9 150.2626351810867 moveto
47.9 104.0517976003761 lineto
118.5971908746105 68.40000000000001 moveto
82.53292685112672 68.40000000000001 lineto
118.5971908746105 68.40000000000001 moveto
153.7749908047683 68.40000000000001 lineto
129.1443940963024 350.8 moveto
87.7290595624892 350.8 lineto
330.3 145.9818814977087 moveto
330.2999999999999 104.6918393208757 lineto
330.3 145.9818814977087 moveto
330.3 177.038500122086 lineto
stroke


